"Language","original","english","czech","german","russian","polish","hungarian","italian","spanish","french","chinese","japanese","portuguese","chinesesimp",
"STR_SFL_EXP_search","Search","Search","Prohledat","Durchsuchen","Искать","Search","Search","Search","Search","Search","搜索物资","Search","Search","搜索物资",
"STR_SFL_EXP_Searching","Searching","Searching","Searching","Searching","Поиск","Searching","Searching","Searching","Searching","Searching","Searching","Searching","Searching","Searching",
"STR_SFL_EXP_Found","Found something!","Found something!","Found something!","Found something!","Что-то нашлось!","Found something!","Found something!","Found something!","Found something!","Found something!","Found something!","Found something!","Found something!","Found something!",
"STR_SFL_EXP_Empty","Empty.","Empty.","Empty.","Empty.","Пусто.","Empty.","Empty.","Empty.","Empty.","Empty.","Empty.","Empty.","Empty.","Empty.",
